                                        
            1111222222221111            
         1122222222222222222211         
       122222222222222221   122211      
     1222222222221     2     222221     
   1222222222 11        1   122222221   
  122222222     1111111      222222221  
  22222222    112222222211    22222222  
 12222  11   12222222222221    22222222 
 2222     1  22222222222222111122222222 
 1222    1   22222222222222    22222222 
 122222121    222222222222    12222222  
  122222221     22222222     122222222  
   2222222211  1         111122222222   
    122222222221       1     2222221    
      222222222222211222     22222      
        122222222222222221112222        
           122222222222222221           
                                        
                                        
